Journal (reproducible report)
…
1 My first challenge

# 1.0 Load libraries ----
library(tidyverse)
library(readxl)

# Importing Files ----
bikes_tbl <- read_excel(path = "00_data/01_bike_sales/01_raw_data/bikes.xlsx")
orderlines_tbl <- read_excel(path = "00_data/01_bike_sales/01_raw_data/orderlines.xlsx")
bikeshops_tbl <- read_excel(path = "00_data/01_bike_sales/01_raw_data/bikeshops.xlsx")

# Joining Data ----
left_join(orderlines_tbl, bikes_tbl, by = c("product.id" = "bike.id"))

## # A tibble: 15,644 x 15
##    ...1  order.id order.line order.date          customer.id product.id quantity
##    <chr>    <dbl>      <dbl> <dttm>                    <dbl>      <dbl>    <dbl>
##  1 1            1          1 2015-01-07 00:00:00           2       2681        1
##  2 2            1          2 2015-01-07 00:00:00           2       2411        1
##  3 3            2          1 2015-01-10 00:00:00          10       2629        1
##  4 4            2          2 2015-01-10 00:00:00          10       2137        1
##  5 5            3          1 2015-01-10 00:00:00           6       2367        1
##  6 6            3          2 2015-01-10 00:00:00           6       1973        1
##  7 7            3          3 2015-01-10 00:00:00           6       2422        1
##  8 8            3          4 2015-01-10 00:00:00           6       2655        1
##  9 9            3          5 2015-01-10 00:00:00           6       2247        1
## 10 10           4          1 2015-01-11 00:00:00          22       2408        1
## # … with 15,634 more rows, and 8 more variables: model <chr>, model.year <dbl>,
## #   frame.material <chr>, weight <dbl>, price <dbl>, category <chr>,
## #   gender <chr>, url <chr>

bike_orderlines_joined_tbl <- orderlines_tbl %>%
  left_join(bikes_tbl, by = c("product.id" = "bike.id")) %>%
  left_join(bikeshops_tbl, by = c("customer.id" = "bikeshop.id"))

# Wrangling Data ----
bike_orderlines_wrangled_tbl <- bike_orderlines_joined_tbl %>%
  separate(col = location,
           into = c("city", "state"),
           sep = ", ") %>%
  mutate(total.price = price * quantity)

bike_orderlines_wrangled_tbl

## # A tibble: 15,644 x 21
##    ...1  order.id order.line order.date          customer.id product.id quantity
##    <chr>    <dbl>      <dbl> <dttm>                    <dbl>      <dbl>    <dbl>
##  1 1            1          1 2015-01-07 00:00:00           2       2681        1
##  2 2            1          2 2015-01-07 00:00:00           2       2411        1
##  3 3            2          1 2015-01-10 00:00:00          10       2629        1
##  4 4            2          2 2015-01-10 00:00:00          10       2137        1
##  5 5            3          1 2015-01-10 00:00:00           6       2367        1
##  6 6            3          2 2015-01-10 00:00:00           6       1973        1
##  7 7            3          3 2015-01-10 00:00:00           6       2422        1
##  8 8            3          4 2015-01-10 00:00:00           6       2655        1
##  9 9            3          5 2015-01-10 00:00:00           6       2247        1
## 10 10           4          1 2015-01-11 00:00:00          22       2408        1
## # … with 15,634 more rows, and 14 more variables: model <chr>,
## #   model.year <dbl>, frame.material <chr>, weight <dbl>, price <dbl>,
## #   category <chr>, gender <chr>, url <chr>, name <chr>, city <chr>,
## #   state <chr>, lat <dbl>, lng <dbl>, total.price <dbl>
…
# Step 1 - Manipulate
sales_by_year_cat_1_tbl <- bike_orderlines_wrangled_tbl %>%
  select(order.date, total.price, state) %>%
  mutate(year = year(order.date)) %>%
  group_by(year, state) %>%
  summarize(sales = sum(total.price)) %>%
  ungroup() %>%
  mutate(sales_text = scales::dollar(sales, big.mark = ".", 
                                     decimal.mark = ",", 
                                     prefix = "", 
                                     suffix = " €"))
sales_by_year_cat_1_tbl

## # A tibble: 60 x 4
##     year state                           sales sales_text 
##    <dbl> <chr>                           <dbl> <chr>      
##  1  2015 Baden-Württemberg             1031924 1.031.924 €
##  2  2015 Bavaria                       1301461 1.301.461 €
##  3  2015 Berlin                          95853 95.853 €   
##  4  2015 Bremen                        1395912 1.395.912 €
##  5  2015 Hamburg                        423090 423.090 €  
##  6  2015 Hesse                          308609 308.609 €  
##  7  2015 Lower Saxony                   584386 584.386 €  
##  8  2015 Mecklenburg-Western Pomerania  222003 222.003 €  
##  9  2015 North Rhine-Westphalia        3735092 3.735.092 €
## 10  2015 Saxony                         238371 238.371 €  
## # … with 50 more rows
…
  # print the progress
  print(i)

}

Rosebike_model_tbl
saveRDS(Rosebike_model_tbl, "bike_data_tbl.rds")

library(readr)
res <- read_rds("bike_data_tbl.rds")
res

## # A tibble: 33 x 4
##    position Model             Price            Category
##       <int> <chr>             <chr>            <chr>   
##  1        1 GROUND CONTROL    "ab 1.699,00 €"  mtb     
##  2        2 ROOT MILLER       "ab 1.999,00 €"  mtb     
##  3        3 PIKES PEAK        "ab 3.099,00 € " mtb     
##  4        4 THE BRUCE         " "              mtb     
##  5        5 COUNT SOLO        " "              mtb     
##  6        6 PSYCHO PATH       "ab 1.849,00 €"  mtb     
##  7        7 THRILL HILL       "ab 2.599,00 €"  mtb     
##  8        8 THRILL HILL TRAIL "ab 2.899,00 €"  mtb     
##  9        9 SOUL FIRE         "ab 2.149,00 €"  mtb     
## 10        1 PRO SL DISC       "ab 1.599,00 €"  rennrad 
## # … with 23 more rows
…
library(readr)
res1 <- read_rds("first.rds")
res1

## # A tibble: 222,787 x 2
##    organization                                 count
##    <chr>                                        <int>
##  1 International Business Machines Corporation 139091
##  2 General Electric Company                     47121
##  3 Intel Corporation                            42156
##  4 Hewlett-Packard Development Company, L.P.    35572
##  5 Microsoft Corporation                        30085
##  6 Micron Technology, Inc.                      28000
##  7 QUALCOMM Incorporated                        24702
##  8 Texas Instruments Incorporated               24181
##  9 Xerox Corporation                            23173
## 10 Apple Inc.                                   21820
## # … with 222,777 more rows
…
library(readr)
res2 <- read_rds("second.rds")
res2

## # A tibble: 26,639 x 2
##    organization                                count
##    <chr>                                       <int>
##  1 International Business Machines Corporation  9265
##  2 Intel Corporation                            3526
##  3 Microsoft Technology Licensing, LLC          3106
##  4 Apple Inc.                                   2817
##  5 Ford Global Technologies, LLC                2624
##  6 Amazon Technologies, Inc.                    2533
##  7 QUALCOMM Incorporated                        2359
##  8 Google Inc.                                  2290
##  9 General Electric Company                     1860
## 10 Hewlett-Packard Development Company, L.P.    1589
## # … with 26,629 more rows
…
